<svg width="156" height="169" viewBox="0 0 156 169" fill="none" xmlns="http://www.w3.org/2000/svg">
<path fill-rule="evenodd" clip-rule="evenodd" d="M45.1124 31.7377C55.9697 23.2313 67.082 16.3769 79.8741 11.2192C93.2459 5.82771 106.898 -2.39582 120.861 1.19592C134.963 4.8231 146.443 16.576 152.382 29.8701C157.732 41.8477 154.382 55.6083 150.806 68.2298C148.069 77.8892 136.254 82.8226 134.574 92.7206C130.507 116.68 152.523 147.454 134.578 163.842C119.709 177.422 93.2601 157.717 79.4199 143.089C67.7295 130.734 81.5354 105.825 68.9039 94.4335C50.9062 78.2026 9.98247 95.373 1.384 72.7142C-5.88092 53.5695 28.9936 44.3663 45.1124 31.7377Z" fill="#A1CB44"/>
</svg>
