<svg width="366" height="30" viewBox="0 0 366 30" fill="none" xmlns="http://www.w3.org/2000/svg">
<path d="M13.7829 8.632L13.3016 7.75542L11.6906 8.63991L13.3083 9.51219L13.7829 8.632ZM17.4549 10.612L18.3108 11.1291L18.8539 10.2302L17.9295 9.73181L17.4549 10.612ZM15.3669 14.068L14.8524 14.9255L15.7072 15.4384L16.2228 14.5851L15.3669 14.068ZM11.5869 11.8L12.1014 10.9425L10.5397 10.0055L10.5872 11.8261L11.5869 11.8ZM11.6949 15.94V16.94H12.7213L12.6945 15.9139L11.6949 15.94ZM7.59087 15.94L6.59121 15.9139L6.56444 16.94H7.59087V15.94ZM7.69887 11.8L8.69853 11.8261L8.74602 10.0055L7.18437 10.9425L7.69887 11.8ZM3.91887 14.068L3.05901 14.5785L3.57191 15.4424L4.43336 14.9255L3.91887 14.068ZM1.86687 10.612L1.39225 9.73181L0.474948 10.2264L1.00701 11.1225L1.86687 10.612ZM5.53887 8.632L6.01348 9.51219L7.63116 8.63991L6.02013 7.75542L5.53887 8.632ZM1.86687 6.616L1.00701 6.10546L0.47896 6.99481L1.38561 7.49258L1.86687 6.616ZM3.91887 3.16L4.43933 2.30611L3.5755 1.77959L3.05901 2.64946L3.91887 3.16ZM7.69887 5.464L7.1784 6.31788L8.746 7.27337L8.69853 5.43814L7.69887 5.464ZM7.59087 1.288V0.287998H6.56467L6.5912 1.31385L7.59087 1.288ZM11.6949 1.288L12.6945 1.31385L12.7211 0.287998H11.6949V1.288ZM11.5869 5.464L10.5872 5.43814L10.5397 7.27337L12.1073 6.31788L11.5869 5.464ZM15.3669 3.16L16.2228 2.64288L15.7036 1.78361L14.8464 2.30611L15.3669 3.16ZM17.4549 6.616L17.9361 7.49258L18.8498 6.99098L18.3108 6.09888L17.4549 6.616ZM13.3083 9.51219L16.9803 11.4922L17.9295 9.73181L14.2575 7.7518L13.3083 9.51219ZM16.599 10.0949L14.511 13.5509L16.2228 14.5851L18.3108 11.1291L16.599 10.0949ZM15.8814 13.2105L12.1014 10.9425L11.0724 12.6575L14.8524 14.9255L15.8814 13.2105ZM10.5872 11.8261L10.6952 15.9661L12.6945 15.9139L12.5865 11.7739L10.5872 11.8261ZM11.6949 14.94H7.59087V16.94H11.6949V14.94ZM8.59053 15.9661L8.69853 11.8261L6.69921 11.7739L6.59121 15.9139L8.59053 15.9661ZM7.18437 10.9425L3.40437 13.2105L4.43336 14.9255L8.21336 12.6575L7.18437 10.9425ZM4.77872 13.5575L2.72672 10.1015L1.00701 11.1225L3.05901 14.5785L4.77872 13.5575ZM2.34148 11.4922L6.01348 9.51219L5.06425 7.7518L1.39225 9.73181L2.34148 11.4922ZM6.02013 7.75542L2.34813 5.73942L1.38561 7.49258L5.05761 9.50858L6.02013 7.75542ZM2.72672 7.12654L4.77872 3.67054L3.05901 2.64946L1.00701 6.10546L2.72672 7.12654ZM3.3984 4.01388L7.1784 6.31788L8.21933 4.61011L4.43933 2.30611L3.3984 4.01388ZM8.69853 5.43814L8.59053 1.26215L6.5912 1.31385L6.6992 5.48985L8.69853 5.43814ZM7.59087 2.288H11.6949V0.287998H7.59087V2.288ZM10.6952 1.26215L10.5872 5.43814L12.5865 5.48985L12.6945 1.31385L10.6952 1.26215ZM12.1073 6.31788L15.8873 4.01388L14.8464 2.30611L11.0664 4.61011L12.1073 6.31788ZM14.511 3.67711L16.599 7.13311L18.3108 6.09888L16.2228 2.64288L14.511 3.67711ZM16.9736 5.73942L13.3016 7.75542L14.2641 9.50858L17.9361 7.49258L16.9736 5.73942ZM26.2074 26.812L25.7363 27.6941L25.7404 27.6963L26.2074 26.812ZM21.2034 22.132L20.3468 22.648L20.3514 22.6555L21.2034 22.132ZM21.2034 8.668L20.3513 8.14445L20.3468 8.15199L21.2034 8.668ZM26.2074 3.988L25.7404 3.10372L25.7363 3.10592L26.2074 3.988ZM40.5714 3.988L40.1003 4.87008L40.1044 4.87227L40.5714 3.988ZM45.5754 8.668L44.7188 9.18403L44.7234 9.19152L45.5754 8.668ZM45.5754 22.132L44.7233 21.6085L44.7188 21.616L45.5754 22.132ZM40.5714 26.812L40.1044 25.9277L40.1003 25.9299L40.5714 26.812ZM36.8634 21.7L37.366 22.5645L36.8634 21.7ZM39.3114 19.18L40.1856 19.6657L40.19 19.6575L39.3114 19.18ZM39.3114 11.656L38.4327 12.1335L38.4372 12.1416L39.3114 11.656ZM36.8634 9.1L37.366 8.23549V8.23549L36.8634 9.1ZM29.9514 9.1L29.4487 8.23549V8.23549L29.9514 9.1ZM27.5034 11.656L28.3776 12.1417L28.382 12.1335L27.5034 11.656ZM27.5034 19.18L26.6247 19.6575L26.6292 19.6656L27.5034 19.18ZM29.9514 21.7L30.454 20.8355H30.454L29.9514 21.7ZM33.4074 27.504C30.8891 27.504 28.6521 26.9721 26.6743 25.9277L25.7404 27.6963C28.0347 28.9079 30.5977 29.504 33.4074 29.504V27.504ZM26.6785 25.9299C24.7191 24.8834 23.1842 23.4455 22.0554 21.6085L20.3514 22.6555C21.6706 24.8025 23.4717 26.4846 25.7363 27.6941L26.6785 25.9299ZM22.0599 21.616C20.9607 19.7912 20.4034 17.728 20.4034 15.4H18.4034C18.4034 18.064 19.0461 20.4888 20.3468 22.648L22.0599 21.616ZM20.4034 15.4C20.4034 13.072 20.9607 11.0088 22.0599 9.18401L20.3468 8.15199C19.0461 10.3112 18.4034 12.736 18.4034 15.4H20.4034ZM22.0554 9.19152C23.1842 7.3545 24.7191 5.91658 26.6785 4.87007L25.7363 3.10592C23.4717 4.31541 21.6706 5.9975 20.3514 8.14448L22.0554 9.19152ZM26.6743 4.87227C28.6521 3.82786 30.8891 3.296 33.4074 3.296V1.296C30.5977 1.296 28.0347 1.89214 25.7404 3.10373L26.6743 4.87227ZM33.4074 3.296C35.9259 3.296 38.149 3.8279 40.1003 4.87007L41.0425 3.10592C38.7698 1.89209 36.2169 1.296 33.4074 1.296V3.296ZM40.1044 4.87227C42.086 5.91871 43.6165 7.35414 44.7188 9.18401L46.4319 8.15199C45.1343 5.99786 43.3288 4.31329 41.0383 3.10373L40.1044 4.87227ZM44.7234 9.19152C45.844 11.0153 46.4114 13.0758 46.4114 15.4H48.4114C48.4114 12.7322 47.7547 10.3047 46.4274 8.14448L44.7234 9.19152ZM46.4114 15.4C46.4114 17.7242 45.844 19.7847 44.7234 21.6085L46.4274 22.6555C47.7547 20.4953 48.4114 18.0678 48.4114 15.4H46.4114ZM44.7188 21.616C43.6165 23.4459 42.086 24.8813 40.1044 25.9277L41.0383 27.6963C43.3288 26.4867 45.1343 24.8021 46.4319 22.648L44.7188 21.616ZM40.1003 25.9299C38.149 26.9721 35.9259 27.504 33.4074 27.504V29.504C36.2169 29.504 38.7698 28.9079 41.0425 27.6941L40.1003 25.9299ZM33.4074 23.6C34.8439 23.6 36.1713 23.2591 37.366 22.5645L36.3607 20.8355C35.4914 21.3409 34.5148 21.6 33.4074 21.6V23.6ZM37.366 22.5645C38.5593 21.8707 39.5013 20.8973 40.1855 19.6656L38.4372 18.6944C37.9215 19.6227 37.2314 20.3293 36.3607 20.8355L37.366 22.5645ZM40.19 19.6575C40.8793 18.3892 41.2114 16.9613 41.2114 15.4H39.2114C39.2114 16.6707 38.9434 17.7628 38.4327 18.7025L40.19 19.6575ZM41.2114 15.4C41.2114 13.8392 40.8795 12.4194 40.1855 11.1704L38.4372 12.1416C38.9433 13.0526 39.2114 14.1288 39.2114 15.4H41.2114ZM40.19 11.1785C39.5073 9.92232 38.5649 8.93253 37.366 8.23549L36.3607 9.96451C37.2258 10.4675 37.9154 11.1817 38.4327 12.1335L40.19 11.1785ZM37.366 8.23549C36.1713 7.5409 34.8439 7.2 33.4074 7.2V9.2C34.5148 9.2 35.4914 9.4591 36.3607 9.96451L37.366 8.23549ZM33.4074 7.2C31.9708 7.2 30.6434 7.5409 29.4487 8.23549L30.454 9.96451C31.3233 9.4591 32.2999 9.2 33.4074 9.2V7.2ZM29.4487 8.23549C28.2498 8.93253 27.3074 9.92232 26.6247 11.1785L28.382 12.1335C28.8993 11.1817 29.5889 10.4675 30.454 9.96451L29.4487 8.23549ZM26.6292 11.1704C25.9353 12.4194 25.6034 13.8392 25.6034 15.4H27.6034C27.6034 14.1288 27.8715 13.0526 28.3775 12.1416L26.6292 11.1704ZM25.6034 15.4C25.6034 16.9613 25.9354 18.3892 26.6247 19.6575L28.382 18.7025C27.8713 17.7628 27.6034 16.6707 27.6034 15.4H25.6034ZM26.6292 19.6656C27.3135 20.8973 28.2554 21.8707 29.4487 22.5645L30.454 20.8355C29.5833 20.3293 28.8933 19.6227 28.3775 18.6944L26.6292 19.6656ZM29.4487 22.5645C30.6434 23.2591 31.9708 23.6 33.4074 23.6V21.6C32.2999 21.6 31.3233 21.3409 30.454 20.8355L29.4487 22.5645ZM75.4807 2.8H76.4807V1.8H75.4807V2.8ZM75.4807 28V29H76.4807V28H75.4807ZM69.6127 28L68.8426 28.6379L69.1425 29H69.6127V28ZM58.4887 14.572L59.2588 13.9341L57.4887 11.7974V14.572H58.4887ZM58.4887 28V29H59.4887V28H58.4887ZM51.5047 28H50.5047V29H51.5047V28ZM51.5047 2.8V1.8H50.5047V2.8H51.5047ZM57.3727 2.8L58.1428 2.16205L57.8428 1.8H57.3727V2.8ZM68.4967 16.228L67.7266 16.8659L69.4967 19.0026V16.228H68.4967ZM68.4967 2.8V1.8H67.4967V2.8H68.4967ZM74.4807 2.8V28H76.4807V2.8H74.4807ZM75.4807 27H69.6127V29H75.4807V27ZM70.3828 27.3621L59.2588 13.9341L57.7186 15.2099L68.8426 28.6379L70.3828 27.3621ZM57.4887 14.572V28H59.4887V14.572H57.4887ZM58.4887 27H51.5047V29H58.4887V27ZM52.5047 28V2.8H50.5047V28H52.5047ZM51.5047 3.8H57.3727V1.8H51.5047V3.8ZM56.6026 3.43795L67.7266 16.8659L69.2668 15.5901L58.1428 2.16205L56.6026 3.43795ZM69.4967 16.228V2.8H67.4967V16.228H69.4967ZM68.4967 3.8H75.4807V1.8H68.4967V3.8ZM80.8686 2.8V1.8H79.8686V2.8H80.8686ZM87.9966 2.8H88.9966V1.8H87.9966V2.8ZM87.9966 22.348H86.9966V23.348H87.9966V22.348ZM100.021 22.348H101.021V21.348H100.021V22.348ZM100.021 28V29H101.021V28H100.021ZM80.8686 28H79.8686V29H80.8686V28ZM80.8686 3.8H87.9966V1.8H80.8686V3.8ZM86.9966 2.8V22.348H88.9966V2.8H86.9966ZM87.9966 23.348H100.021V21.348H87.9966V23.348ZM99.0206 22.348V28H101.021V22.348H99.0206ZM100.021 27H80.8686V29H100.021V27ZM81.8686 28V2.8H79.8686V28H81.8686ZM103.201 2.8V1.8H102.201V2.8H103.201ZM110.329 2.8H111.329V1.8H110.329V2.8ZM110.329 28V29H111.329V28H110.329ZM103.201 28H102.201V29H103.201V28ZM103.201 3.8H110.329V1.8H103.201V3.8ZM109.329 2.8V28H111.329V2.8H109.329ZM110.329 27H103.201V29H110.329V27ZM104.201 28V2.8H102.201V28H104.201ZM139.736 2.8H140.736V1.8H139.736V2.8ZM139.736 28V29H140.736V28H139.736ZM133.868 28L133.098 28.6379L133.398 29H133.868V28ZM122.744 14.572L123.515 13.9341L121.744 11.7974V14.572H122.744ZM122.744 28V29H123.744V28H122.744ZM115.76 28H114.76V29H115.76V28ZM115.76 2.8V1.8H114.76V2.8H115.76ZM121.628 2.8L122.399 2.16205L122.099 1.8H121.628V2.8ZM132.752 16.228L131.982 16.8659L133.752 19.0026V16.228H132.752ZM132.752 2.8V1.8H131.752V2.8H132.752ZM138.736 2.8V28H140.736V2.8H138.736ZM139.736 27H133.868V29H139.736V27ZM134.639 27.3621L123.515 13.9341L121.974 15.2099L133.098 28.6379L134.639 27.3621ZM121.744 14.572V28H123.744V14.572H121.744ZM122.744 27H115.76V29H122.744V27ZM116.76 28V2.8H114.76V28H116.76ZM115.76 3.8H121.628V1.8H115.76V3.8ZM120.858 3.43795L131.982 16.8659L133.523 15.5901L122.399 2.16205L120.858 3.43795ZM133.752 16.228V2.8H131.752V16.228H133.752ZM132.752 3.8H139.736V1.8H132.752V3.8ZM165.356 22.492H166.356V21.492H165.356V22.492ZM165.356 28V29H166.356V28H165.356ZM145.124 28H144.124V29H145.124V28ZM145.124 2.8V1.8H144.124V2.8H145.124ZM164.888 2.8H165.888V1.8H164.888V2.8ZM164.888 8.308V9.308H165.888V8.308H164.888ZM152.18 8.308V7.308H151.18V8.308H152.18ZM152.18 12.556H151.18V13.556H152.18V12.556ZM163.376 12.556H164.376V11.556H163.376V12.556ZM163.376 17.884V18.884H164.376V17.884H163.376ZM152.18 17.884V16.884H151.18V17.884H152.18ZM152.18 22.492H151.18V23.492H152.18V22.492ZM164.356 22.492V28H166.356V22.492H164.356ZM165.356 27H145.124V29H165.356V27ZM146.124 28V2.8H144.124V28H146.124ZM145.124 3.8H164.888V1.8H145.124V3.8ZM163.888 2.8V8.308H165.888V2.8H163.888ZM164.888 7.308H152.18V9.308H164.888V7.308ZM151.18 8.308V12.556H153.18V8.308H151.18ZM152.18 13.556H163.376V11.556H152.18V13.556ZM162.376 12.556V17.884H164.376V12.556H162.376ZM163.376 16.884H152.18V18.884H163.376V16.884ZM151.18 17.884V22.492H153.18V17.884H151.18ZM152.18 23.492H165.356V21.492H152.18V23.492ZM180.508 2.8V1.8H179.508V2.8H180.508ZM199.768 4.348L199.333 5.24841L199.768 4.348ZM204.736 22.06L205.586 22.5871L204.736 22.06ZM180.508 28H179.508V29H180.508V28ZM197.32 20.476L196.64 19.7427L196.634 19.749L197.32 20.476ZM197.32 10.324L196.634 11.051L196.64 11.0573L197.32 10.324ZM187.636 8.488V7.488H186.636V8.488H187.636ZM187.636 22.312H186.636V23.312H187.636V22.312ZM180.508 3.8H192.424V1.8H180.508V3.8ZM192.424 3.8C195.058 3.8 197.354 4.29186 199.333 5.24841L200.203 3.44759C197.911 2.34014 195.311 1.8 192.424 1.8V3.8ZM199.333 5.24841C201.31 6.20332 202.817 7.54272 203.887 9.26709L205.586 8.2129C204.304 6.14528 202.499 4.55668 200.203 3.44759L199.333 5.24841ZM203.887 9.26709C204.951 10.9835 205.5 13.0155 205.5 15.4H207.5C207.5 12.6965 206.874 10.2885 205.586 8.2129L203.887 9.26709ZM205.5 15.4C205.5 17.7845 204.951 19.8165 203.887 21.5329L205.586 22.5871C206.874 20.5115 207.5 18.1035 207.5 15.4H205.5ZM203.887 21.5329C202.817 23.2573 201.31 24.5967 199.333 25.5516L200.203 27.3524C202.499 26.2433 204.304 24.6547 205.586 22.5871L203.887 21.5329ZM199.333 25.5516C197.354 26.5081 195.058 27 192.424 27V29C195.311 29 197.911 28.4599 200.203 27.3524L199.333 25.5516ZM192.424 27H180.508V29H192.424V27ZM181.508 28V2.8H179.508V28H181.508ZM192.136 23.312C194.495 23.312 196.488 22.638 198.007 21.203L196.634 19.749C195.561 20.762 194.098 21.312 192.136 21.312V23.312ZM198 21.2093C199.565 19.7586 200.3 17.778 200.3 15.4H198.3C198.3 17.342 197.716 18.7454 196.64 19.7427L198 21.2093ZM200.3 15.4C200.3 13.022 199.565 11.0414 198 9.59073L196.64 11.0573C197.716 12.0546 198.3 13.458 198.3 15.4H200.3ZM198.007 9.59699C196.488 8.162 194.495 7.488 192.136 7.488V9.488C194.098 9.488 195.561 10.038 196.634 11.051L198.007 9.59699ZM192.136 7.488H187.636V9.488H192.136V7.488ZM186.636 8.488V22.312H188.636V8.488H186.636ZM187.636 23.312H192.136V21.312H187.636V23.312ZM227.143 23.104L228.07 22.7291L227.817 22.104H227.143V23.104ZM216.487 23.104V22.104H215.813L215.56 22.7291L216.487 23.104ZM214.507 28V29H215.181L215.434 28.3749L214.507 28ZM207.235 28L206.32 27.5962L205.701 29H207.235V28ZM218.359 2.8V1.8H217.707L217.444 2.39616L218.359 2.8ZM225.379 2.8L226.293 2.39507L226.03 1.8H225.379V2.8ZM236.539 28V29H238.076L237.453 27.5951L236.539 28ZM229.123 28L228.196 28.3749L228.449 29H229.123V28ZM225.055 17.848V18.848H226.535L225.983 17.4752L225.055 17.848ZM221.815 9.784L222.743 9.41118L221.815 7.10173L220.887 9.41118L221.815 9.784ZM218.575 17.848L217.647 17.4752L217.096 18.848H218.575V17.848ZM227.143 22.104H216.487V24.104H227.143V22.104ZM215.56 22.7291L213.58 27.6251L215.434 28.3749L217.414 23.4789L215.56 22.7291ZM214.507 27H207.235V29H214.507V27ZM208.15 28.4038L219.274 3.20383L217.444 2.39616L206.32 27.5962L208.15 28.4038ZM218.359 3.8H225.379V1.8H218.359V3.8ZM224.465 3.20492L235.625 28.4049L237.453 27.5951L226.293 2.39507L224.465 3.20492ZM236.539 27H229.123V29H236.539V27ZM230.05 27.6251L228.07 22.7291L226.216 23.4789L228.196 28.3749L230.05 27.6251ZM225.983 17.4752L222.743 9.41118L220.887 10.1568L224.127 18.2208L225.983 17.4752ZM220.887 9.41118L217.647 17.4752L219.503 18.2208L222.743 10.1568L220.887 9.41118ZM218.575 18.848H225.055V16.848H218.575V18.848ZM249.936 21.304L250.762 20.7401L250.464 20.304H249.936V21.304ZM246.048 21.304V20.304H245.048V21.304H246.048ZM246.048 28V29H247.048V28H246.048ZM238.92 28H237.92V29H238.92V28ZM238.92 2.8V1.8H237.92V2.8H238.92ZM256.38 3.952L255.964 4.86154L255.975 4.86635L256.38 3.952ZM260.268 7.192L259.427 7.73349L259.431 7.74003L260.268 7.192ZM260.34 16.912L259.494 16.378L259.492 16.382L260.34 16.912ZM256.704 20.08L256.268 19.1802L255.221 19.6874L255.879 20.6459L256.704 20.08ZM262.14 28V29H264.039L262.964 27.4341L262.14 28ZM254.508 28L253.682 28.5639L253.98 29H254.508V28ZM246.048 8.416V7.416H245.048V8.416H246.048ZM246.048 15.796H245.048V16.796H246.048V15.796ZM253.32 14.86L253.962 15.6262L253.97 15.6202L253.977 15.6141L253.32 14.86ZM249.936 20.304H246.048V22.304H249.936V20.304ZM245.048 21.304V28H247.048V21.304H245.048ZM246.048 27H238.92V29H246.048V27ZM239.92 28V2.8H237.92V28H239.92ZM238.92 3.8H250.44V1.8H238.92V3.8ZM250.44 3.8C252.609 3.8 254.441 4.1654 255.964 4.86147L256.796 3.04252C254.958 2.2026 252.831 1.8 250.44 1.8V3.8ZM255.975 4.86635C257.493 5.53877 258.63 6.49655 259.427 7.73348L261.109 6.65052C260.081 5.05545 258.626 3.85323 256.785 3.03765L255.975 4.86635ZM259.431 7.74003C260.222 8.94729 260.636 10.3948 260.636 12.124H262.636C262.636 10.0612 262.137 8.22071 261.104 6.64397L259.431 7.74003ZM260.636 12.124C260.636 13.7837 260.245 15.1895 259.494 16.378L261.185 17.446C262.163 15.8985 262.636 14.1123 262.636 12.124H260.636ZM259.492 16.382C258.762 17.5491 257.702 18.4849 256.268 19.1802L257.14 20.9798C258.874 20.1391 260.237 18.9629 261.188 17.442L259.492 16.382ZM255.879 20.6459L261.315 28.5659L262.964 27.4341L257.528 19.5141L255.879 20.6459ZM262.14 27H254.508V29H262.14V27ZM255.334 27.4361L250.762 20.7401L249.11 21.8679L253.682 28.5639L255.334 27.4361ZM255.436 12.124C255.436 10.7197 254.981 9.50847 253.977 8.63392L252.663 10.1421C253.147 10.5635 253.436 11.1763 253.436 12.124H255.436ZM253.977 8.63392C252.98 7.76594 251.6 7.416 250.008 7.416V9.416C251.344 9.416 252.172 9.71406 252.663 10.1421L253.977 8.63392ZM250.008 7.416H246.048V9.416H250.008V7.416ZM245.048 8.416V15.796H247.048V8.416H245.048ZM246.048 16.796H250.008V14.796H246.048V16.796ZM250.008 16.796C251.592 16.796 252.967 16.4614 253.962 15.6262L252.677 14.0938C252.185 14.5066 251.352 14.796 250.008 14.796V16.796ZM253.977 15.6141C254.981 14.7395 255.436 13.5283 255.436 12.124H253.436C253.436 13.0717 253.147 13.6845 252.663 14.1059L253.977 15.6141ZM268.844 27.748L269.098 26.7808L268.844 27.748ZM264.164 25.732L263.251 25.3253L262.915 26.0784L263.591 26.5512L264.164 25.732ZM266.504 20.476L267.055 19.6412L266.07 18.9919L265.591 20.0693L266.504 20.476ZM270.428 22.276L270.721 21.3199L270.428 22.276ZM277.736 19.324L277.312 20.2295L277.329 20.2373L277.346 20.2446L277.736 19.324ZM273.992 18.208L274.209 17.2318L274.203 17.2304L273.992 18.208ZM269.24 16.912L268.887 17.8476L268.895 17.8505L268.903 17.8533L269.24 16.912ZM265.856 6.328L266.681 6.89386L266.686 6.88637L265.856 6.328ZM269.6 3.376L269.206 2.45684L269.202 2.45893L269.6 3.376ZM280.652 2.872L280.42 3.84465L280.427 3.8463L280.434 3.84784L280.652 2.872ZM284.9 4.492L285.824 4.87527L286.158 4.07136L285.407 3.63006L284.9 4.492ZM282.704 9.784L282.229 10.6639L283.203 11.1901L283.628 10.1673L282.704 9.784ZM272.624 8.488L273.157 9.33423L273.168 9.32728L273.179 9.32005L272.624 8.488ZM272.804 11.62L272.403 12.5362L272.804 11.62ZM276.512 12.664L276.72 11.6858L276.719 11.6856L276.512 12.664ZM281.264 13.996L280.905 14.9293L280.916 14.9335L280.927 14.9373L281.264 13.996ZM284.54 16.228L283.791 16.8902L283.799 16.8994L283.807 16.9085L284.54 16.228ZM284.684 24.472L283.86 23.9062L284.684 24.472ZM280.904 27.424L281.298 28.3432L281.309 28.3383L280.904 27.424ZM274.784 27.504C272.828 27.504 270.933 27.2624 269.098 26.7808L268.59 28.7152C270.596 29.2416 272.661 29.504 274.784 29.504V27.504ZM269.098 26.7808C267.255 26.2968 265.813 25.6656 264.738 24.9128L263.591 26.5512C264.915 27.4784 266.594 28.1912 268.59 28.7152L269.098 26.7808ZM265.078 26.1387L267.418 20.8827L265.591 20.0693L263.251 25.3253L265.078 26.1387ZM265.954 21.3108C267.172 22.1146 268.57 22.7523 270.135 23.2321L270.721 21.3199C269.311 20.8877 268.092 20.3254 267.055 19.6412L265.954 21.3108ZM270.135 23.2321C271.711 23.7149 273.273 23.96 274.82 23.96V21.96C273.487 21.96 272.122 21.7491 270.721 21.3199L270.135 23.2321ZM274.82 23.96C276.239 23.96 277.453 23.7879 278.345 23.3414C278.806 23.1111 279.212 22.7927 279.5 22.3605C279.792 21.922 279.924 21.425 279.924 20.908H277.924C277.924 21.075 277.885 21.1765 277.836 21.251C277.782 21.3318 277.674 21.4409 277.451 21.5526C276.976 21.7901 276.137 21.96 274.82 21.96V23.96ZM279.924 20.908C279.924 20.3524 279.767 19.825 279.427 19.372C279.096 18.9303 278.637 18.6199 278.127 18.4034L277.346 20.2446C277.627 20.3641 277.763 20.4857 277.827 20.572C277.883 20.647 277.924 20.7436 277.924 20.908H279.924ZM278.161 18.4185C277.288 18.0092 275.949 17.6184 274.209 17.2318L273.775 19.1842C275.492 19.5656 276.649 19.9188 277.312 20.2295L278.161 18.4185ZM274.203 17.2304C272.333 16.828 270.795 16.4069 269.578 15.9707L268.903 17.8533C270.23 18.3291 271.86 18.772 273.782 19.1856L274.203 17.2304ZM269.593 15.9764C268.476 15.5547 267.519 14.8934 266.714 13.9818L265.215 15.3062C266.233 16.4586 267.461 17.3093 268.887 17.8476L269.593 15.9764ZM266.714 13.9818C266.003 13.1781 265.596 12.0445 265.596 10.468H263.596C263.596 12.3955 264.101 14.0459 265.215 15.3062L266.714 13.9818ZM265.596 10.468C265.596 9.12657 265.959 7.94525 266.681 6.89384L265.032 5.76216C264.073 7.15875 263.596 8.73743 263.596 10.468H265.596ZM266.686 6.88637C267.4 5.82581 268.482 4.95242 269.999 4.29307L269.202 2.45893C267.406 3.23957 265.993 4.33419 265.027 5.76962L266.686 6.88637ZM269.994 4.29515C271.516 3.64284 273.426 3.296 275.756 3.296V1.296C273.239 1.296 271.044 1.66916 269.206 2.45685L269.994 4.29515ZM275.756 3.296C277.334 3.296 278.888 3.47885 280.42 3.84465L280.885 1.89935C279.2 1.49715 277.49 1.296 275.756 1.296V3.296ZM280.434 3.84784C281.956 4.18868 283.272 4.69436 284.393 5.35393L285.407 3.63006C284.081 2.84964 282.564 2.27532 280.871 1.89616L280.434 3.84784ZM283.977 4.10872L281.781 9.40072L283.628 10.1673L285.824 4.87527L283.977 4.10872ZM283.179 8.90409C280.664 7.54563 278.173 6.84 275.72 6.84V8.84C277.779 8.84 279.945 9.43037 282.229 10.6639L283.179 8.90409ZM275.72 6.84C274.246 6.84 272.969 7.05657 272.07 7.65595L273.179 9.32005C273.576 9.05542 274.362 8.84 275.72 8.84V6.84ZM272.091 7.64177C271.201 8.2027 270.652 9.03939 270.652 10.108H272.652C272.652 9.83261 272.752 9.5893 273.157 9.33423L272.091 7.64177ZM270.652 10.108C270.652 10.6488 270.812 11.1589 271.145 11.596C271.468 12.02 271.912 12.3213 272.403 12.5362L273.205 10.7038C272.928 10.5827 272.797 10.464 272.736 10.384C272.685 10.3171 272.652 10.2392 272.652 10.108H270.652ZM272.403 12.5362C273.27 12.9154 274.59 13.28 276.306 13.6424L276.719 11.6856C275.026 11.328 273.874 10.9966 273.205 10.7038L272.403 12.5362ZM276.304 13.6422C278.194 14.0438 279.723 14.4748 280.905 14.9293L281.623 13.0627C280.309 12.5572 278.67 12.1002 276.72 11.6858L276.304 13.6422ZM280.927 14.9373C282.037 15.3353 282.988 15.9819 283.791 16.8902L285.29 15.5658C284.268 14.4101 283.035 13.5687 281.602 13.0547L280.927 14.9373ZM283.807 16.9085C284.528 17.6849 284.944 18.7967 284.944 20.368H286.944C286.944 18.4353 286.424 16.7871 285.273 15.5475L283.807 16.9085ZM284.944 20.368C284.944 21.682 284.583 22.852 283.86 23.9062L285.509 25.0378C286.465 23.644 286.944 22.078 286.944 20.368H284.944ZM283.86 23.9062C283.147 24.9448 282.05 25.8229 280.499 26.5097L281.309 28.3383C283.118 27.5371 284.542 26.4472 285.509 25.0378L283.86 23.9062ZM280.51 26.5049C278.987 27.1576 277.089 27.504 274.784 27.504V29.504C277.279 29.504 279.461 29.1304 281.298 28.3431L280.51 26.5049ZM289.597 2.8V1.8H288.597V2.8H289.597ZM296.725 2.8H297.725V1.8H296.725V2.8ZM296.725 22.348H295.725V23.348H296.725V22.348ZM308.749 22.348H309.749V21.348H308.749V22.348ZM308.749 28V29H309.749V28H308.749ZM289.597 28H288.597V29H289.597V28ZM289.597 3.8H296.725V1.8H289.597V3.8ZM295.725 2.8V22.348H297.725V2.8H295.725ZM296.725 23.348H308.749V21.348H296.725V23.348ZM307.749 22.348V28H309.749V22.348H307.749ZM308.749 27H289.597V29H308.749V27ZM290.597 28V2.8H288.597V28H290.597ZM329.095 23.104L330.022 22.7291L329.769 22.104H329.095V23.104ZM318.439 23.104V22.104H317.764L317.512 22.7291L318.439 23.104ZM316.459 28V29H317.133L317.386 28.3749L316.459 28ZM309.187 28L308.272 27.5962L307.652 29H309.187V28ZM320.311 2.8V1.8H319.659L319.396 2.39616L320.311 2.8ZM327.331 2.8L328.245 2.39507L327.982 1.8H327.331V2.8ZM338.491 28V29H340.027L339.405 27.5951L338.491 28ZM331.075 28L330.148 28.3749L330.401 29H331.075V28ZM327.007 17.848V18.848H328.486L327.935 17.4752L327.007 17.848ZM323.767 9.784L324.695 9.41118L323.767 7.10173L322.839 9.41118L323.767 9.784ZM320.527 17.848L319.599 17.4752L319.047 18.848H320.527V17.848ZM329.095 22.104H318.439V24.104H329.095V22.104ZM317.512 22.7291L315.532 27.6251L317.386 28.3749L319.366 23.4789L317.512 22.7291ZM316.459 27H309.187V29H316.459V27ZM310.102 28.4038L321.226 3.20383L319.396 2.39616L308.272 27.5962L310.102 28.4038ZM320.311 3.8H327.331V1.8H320.311V3.8ZM326.416 3.20492L337.576 28.4049L339.405 27.5951L328.245 2.39507L326.416 3.20492ZM338.491 27H331.075V29H338.491V27ZM332.002 27.6251L330.022 22.7291L328.168 23.4789L330.148 28.3749L332.002 27.6251ZM327.935 17.4752L324.695 9.41118L322.839 10.1568L326.079 18.2208L327.935 17.4752ZM322.839 9.41118L319.599 17.4752L321.455 18.2208L324.695 10.1568L322.839 9.41118ZM320.527 18.848H327.007V16.848H320.527V18.848ZM351.888 21.304L352.713 20.7401L352.416 20.304H351.888V21.304ZM348 21.304V20.304H347V21.304H348ZM348 28V29H349V28H348ZM340.872 28H339.872V29H340.872V28ZM340.872 2.8V1.8H339.872V2.8H340.872ZM358.332 3.952L357.916 4.86154L357.927 4.86635L358.332 3.952ZM362.22 7.192L361.379 7.73349L361.383 7.74003L362.22 7.192ZM362.292 16.912L361.446 16.378L361.444 16.382L362.292 16.912ZM358.656 20.08L358.219 19.1802L357.173 19.6874L357.831 20.6459L358.656 20.08ZM364.092 28V29H365.991L364.916 27.4341L364.092 28ZM356.46 28L355.634 28.5639L355.931 29H356.46V28ZM348 8.416V7.416H347V8.416H348ZM348 15.796H347V16.796H348V15.796ZM355.272 14.86L355.914 15.6262L355.921 15.6202L355.928 15.6141L355.272 14.86ZM351.888 20.304H348V22.304H351.888V20.304ZM347 21.304V28H349V21.304H347ZM348 27H340.872V29H348V27ZM341.872 28V2.8H339.872V28H341.872ZM340.872 3.8H352.392V1.8H340.872V3.8ZM352.392 3.8C354.561 3.8 356.393 4.1654 357.916 4.86147L358.747 3.04252C356.91 2.2026 354.782 1.8 352.392 1.8V3.8ZM357.927 4.86635C359.445 5.53877 360.582 6.49655 361.379 7.73348L363.06 6.65052C362.033 5.05545 360.578 3.85323 358.736 3.03765L357.927 4.86635ZM361.383 7.74003C362.174 8.94729 362.588 10.3948 362.588 12.124H364.588C364.588 10.0612 364.089 8.22071 363.056 6.64397L361.383 7.74003ZM362.588 12.124C362.588 13.7837 362.197 15.1895 361.446 16.378L363.137 17.446C364.114 15.8985 364.588 14.1123 364.588 12.124H362.588ZM361.444 16.382C360.714 17.5491 359.653 18.4849 358.219 19.1802L359.092 20.9798C360.826 20.1391 362.189 18.9629 363.14 17.442L361.444 16.382ZM357.831 20.6459L363.267 28.5659L364.916 27.4341L359.48 19.5141L357.831 20.6459ZM364.092 27H356.46V29H364.092V27ZM357.285 27.4361L352.713 20.7401L351.062 21.8679L355.634 28.5639L357.285 27.4361ZM357.388 12.124C357.388 10.7197 356.932 9.50847 355.928 8.63392L354.615 10.1421C355.099 10.5635 355.388 11.1763 355.388 12.124H357.388ZM355.928 8.63392C354.932 7.76594 353.551 7.416 351.96 7.416V9.416C353.296 9.416 354.123 9.71406 354.615 10.1421L355.928 8.63392ZM351.96 7.416H348V9.416H351.96V7.416ZM347 8.416V15.796H349V8.416H347ZM348 16.796H351.96V14.796H348V16.796ZM351.96 16.796C353.544 16.796 354.918 16.4614 355.914 15.6262L354.629 14.0938C354.137 14.5066 353.303 14.796 351.96 14.796V16.796ZM355.928 15.6141C356.932 14.7395 357.388 13.5283 357.388 12.124H355.388C355.388 13.0717 355.099 13.6845 354.615 14.1059L355.928 15.6141Z" fill="#7CB500"/>
</svg>
