<svg width="178" height="19" viewBox="0 0 178 19" fill="none" xmlns="http://www.w3.org/2000/svg">
<path d="M0.992 1.2H4.88V18H0.992V1.2ZM17.147 18.288C15.435 18.288 13.883 17.92 12.491 17.184C11.115 16.432 10.027 15.4 9.227 14.088C8.443 12.76 8.051 11.264 8.051 9.6C8.051 7.936 8.443 6.448 9.227 5.136C10.027 3.808 11.115 2.776 12.491 2.04C13.883 1.288 15.443 0.912 17.171 0.912C18.627 0.912 19.939 1.168 21.107 1.68C22.291 2.192 23.283 2.928 24.083 3.888L21.587 6.192C20.451 4.88 19.043 4.224 17.363 4.224C16.323 4.224 15.395 4.456 14.579 4.92C13.763 5.368 13.123 6 12.659 6.816C12.211 7.632 11.987 8.56 11.987 9.6C11.987 10.64 12.211 11.568 12.659 12.384C13.123 13.2 13.763 13.84 14.579 14.304C15.395 14.752 16.323 14.976 17.363 14.976C19.043 14.976 20.451 14.312 21.587 12.984L24.083 15.288C23.283 16.264 22.291 17.008 21.107 17.52C19.923 18.032 18.603 18.288 17.147 18.288ZM30.2645 4.368H24.8885V1.2H39.5285V4.368H34.1525V18H30.2645V4.368Z" fill="#7CB500"/>
<path d="M59.9613 14.4H52.1613L50.6733 18H46.6893L54.1773 1.2H58.0173L65.5293 18H61.4493L59.9613 14.4ZM58.7373 11.448L56.0733 5.016L53.4093 11.448H58.7373ZM75.3179 18.288C73.6059 18.288 72.0539 17.92 70.6619 17.184C69.2859 16.432 68.1979 15.4 67.3979 14.088C66.6139 12.76 66.2219 11.264 66.2219 9.6C66.2219 7.936 66.6139 6.448 67.3979 5.136C68.1979 3.808 69.2859 2.776 70.6619 2.04C72.0539 1.288 73.6139 0.912 75.3419 0.912C76.7979 0.912 78.1099 1.168 79.2779 1.68C80.4619 2.192 81.4539 2.928 82.2539 3.888L79.7579 6.192C78.6219 4.88 77.2139 4.224 75.5339 4.224C74.4939 4.224 73.5659 4.456 72.7499 4.92C71.9339 5.368 71.2939 6 70.8299 6.816C70.3819 7.632 70.1579 8.56 70.1579 9.6C70.1579 10.64 70.3819 11.568 70.8299 12.384C71.2939 13.2 71.9339 13.84 72.7499 14.304C73.5659 14.752 74.4939 14.976 75.5339 14.976C77.2139 14.976 78.6219 14.312 79.7579 12.984L82.2539 15.288C81.4539 16.264 80.4619 17.008 79.2779 17.52C78.0939 18.032 76.7739 18.288 75.3179 18.288ZM95.8554 14.4H88.0554L86.5674 18H82.5834L90.0714 1.2H93.9114L101.423 18H97.3434L95.8554 14.4ZM94.6314 11.448L91.9674 5.016L89.3034 11.448H94.6314ZM103.406 1.2H111.038C112.862 1.2 114.47 1.552 115.862 2.256C117.27 2.944 118.358 3.92 119.126 5.184C119.91 6.448 120.302 7.92 120.302 9.6C120.302 11.28 119.91 12.752 119.126 14.016C118.358 15.28 117.27 16.264 115.862 16.968C114.47 17.656 112.862 18 111.038 18H103.406V1.2ZM110.846 14.808C112.526 14.808 113.862 14.344 114.854 13.416C115.862 12.472 116.366 11.2 116.366 9.6C116.366 8 115.862 6.736 114.854 5.808C113.862 4.864 112.526 4.392 110.846 4.392H107.294V14.808H110.846ZM136.482 14.88V18H123.474V1.2H136.17V4.32H127.338V7.968H135.138V10.992H127.338V14.88H136.482ZM155.104 18L155.08 7.92L150.136 16.224H148.384L143.464 8.136V18H139.816V1.2H143.032L149.32 11.64L155.512 1.2H158.704L158.752 18H155.104ZM171.042 12.048V18H167.154V12L160.65 1.2H164.778L169.266 8.664L173.754 1.2H177.57L171.042 12.048Z" fill="#333333"/>
</svg>
